LabEx4-Data Cleaning in R
…
#3. Display the mean of Amount Requested grouped by State
dataset%>%
  group_by(State)%>%
  summarise(mean(Amount.Requested))

## `summarise()` ungrouping output (override with `.groups` argument)

## # A tibble: 47 x 2
##    State `mean(Amount.Requested)`
##    <chr>                    <dbl>
##  1 AK                      13689.
##  2 AL                      12734.
##  3 AR                       8598.
##  4 AZ                      12316.
##  5 CA                      12225.
##  6 CO                      12261.
##  7 CT                      12170.
##  8 DC                      15602.
##  9 DE                      10559.
## 10 FL                      11974.
## # ... with 37 more rows
…
#5. Display the Debt to Income ratio of those whose House is on Mortgage. Group the output by states
dataset%>%
  filter(Home.Ownership=="MORTGAGE")%>%
  group_by(State)%>%
  dplyr::select(Debt.To.Income.Ratio, Home.Ownership, State)

## # A tibble: 1,147 x 3
## # Groups:   State [45]
##    Debt.To.Income.Ratio Home.Ownership State
##                   <dbl> <chr>          <chr>
##  1                 14.9 MORTGAGE       SC   
##  2                 28.4 MORTGAGE       TX   
##  3                 23.8 MORTGAGE       CA   
##  4                 14.3 MORTGAGE       KS   
##  5                 14.7 MORTGAGE       LA   
##  6                 12.5 MORTGAGE       CA   
##  7                 13.1 MORTGAGE       CT   
##  8                 10.3 MORTGAGE       AL   
##  9                 11.2 MORTGAGE       TX   
## 10                 21.2 MORTGAGE       FL   
## # ... with 1,137 more rows
