New York AirBnb dataset
…
Different Room types

levels(data$room_type)

## [1] "Entire home/apt" "Private room"    "Shared room"

Checking which Host IDs have the highest listings

top=data%>%
  group_by(host_id)%>%
  tally()
top

## # A tibble: 37,455 x 2
##    host_id     n
##      <int> <int>
##  1    2438     1
##  2    2571     1
##  3    2787     6
##  4    2845     2
##  5    2868     1
##  6    2881     2
##  7    3151     1
##  8    3211     1
##  9    3415     1
## 10    3563     1
## # ... with 37,445 more rows
…
Analyzing the Number of Reviews for each Neighbourhood

d=data%>%
  group_by(neighbourhood)%>%
  filter(reviews_per_month>1)%>%
  summarize(mean_reviews=round(mean(number_of_reviews),2),mean_reviews_per_month=round(mean(reviews_per_month),2))

## `summarise()` ungrouping output (override with `.groups` argument)

d

## # A tibble: 207 x 3
##    neighbourhood     mean_reviews mean_reviews_per_month
##    <fct>                    <dbl>                  <dbl>
##  1 Allerton                  76.1                   2.84
##  2 Arden Heights             20                     1.55
##  3 Arrochar                  25.2                   1.96
##  4 Arverne                   46.3                   2.46
##  5 Astoria                   58.1                   2.81
##  6 Bath Beach                28.6                   1.92
##  7 Battery Park City         48.6                   2.08
##  8 Bay Ridge                 39.8                   3.02
##  9 Bay Terrace              116.                    2.17
## 10 Baychester                74.5                   3.06
## # ... with 197 more rows
…
